[gd_resource type="Theme" load_steps=5 format=2]

[ext_resource path="res://UI/theme/font.tres" type="DynamicFont" id=1]
[ext_resource path="res://UI/png/container_skin.png" type="Texture" id=2]
[ext_resource path="res://UI/theme/box_style.tres" type="StyleBox" id=3]

[sub_resource type="StyleBoxTexture" id=1]
content_margin_left = 20.0
content_margin_right = 20.0
content_margin_top = 10.0
content_margin_bottom = 10.0
texture = ExtResource( 2 )
region_rect = Rect2( 0, 0, 24, 8 )

[resource]
default_font = ExtResource( 1 )
Button/colors/font_color = Color( 0.67451, 0.447059, 1, 1 )
Button/colors/font_color_disabled = Color( 0.9, 0.9, 0.9, 0.2 )
Button/colors/font_color_hover = Color( 0.67451, 0.447059, 1, 1 )
Button/colors/font_color_pressed = Color( 0.67451, 0.447059, 1, 1 )
Button/constants/hseparation = 2
Button/fonts/font = null
Button/styles/disabled = ExtResource( 3 )
Button/styles/focus = ExtResource( 3 )
Button/styles/hover = ExtResource( 3 )
Button/styles/normal = ExtResource( 3 )
Button/styles/pressed = ExtResource( 3 )
GridContainer/constants/hseparation = 4
GridContainer/constants/vseparation = 4
PanelContainer/styles/panel = SubResource( 1 )
