[gd_scene load_steps=2 format=2]

[ext_resource path="res://UI/Scenes/BoxButton.tscn" type="PackedScene" id=1]

[node name="Inventory" type="Control"]
anchor_right = 1.0
anchor_bottom = 1.0
margin_right = -512.0
margin_bottom = -300.0
__meta__ = {
"_edit_use_anchors_": false
}

[node name="GridContainer" type="GridContainer" parent="."]
margin_right = 40.0
margin_bottom = 40.0
columns = 3
__meta__ = {
"_edit_use_anchors_": false
}

[node name="1" parent="GridContainer" instance=ExtResource( 1 )]

[node name="2" parent="GridContainer" instance=ExtResource( 1 )]
margin_left = 24.0
margin_right = 44.0

[node name="3" parent="GridContainer" instance=ExtResource( 1 )]
margin_left = 48.0
margin_right = 68.0
